HW6
…
# Episode-level metadata (one row per episode)
episode_meta <- office %>%
  group_by(season, episode) %>%
  summarise(
    episode_name = first(episode_name),
    imdb_rating  = first(imdb_rating),
    air_date     = first(air_date),
    .groups = "drop"
  ) %>%
  arrange(air_date, season, episode)

episode_meta

# A tibble: 186 × 5
   season episode episode_name      imdb_rating air_date  
    <int>   <int> <chr>                   <dbl> <date>    
 1      1       1 Pilot                     7.6 2005-03-24
 2      1       2 Diversity Day             8.3 2005-03-29
 3      1       3 Health Care               7.9 2005-04-05
 4      1       4 The Alliance              8.1 2005-04-12
 5      1       5 Basketball                8.4 2005-04-19
 6      1       6 Hot Girl                  7.8 2005-04-26
 7      2       1 The Dundies               8.7 2005-09-20
 8      2       2 Sexual Harassment         8.2 2005-09-27
 9      2       3 Office Olympics           8.4 2005-10-04
10      2       4 The Fire                  8.4 2005-10-11
# ℹ 176 more rows
…
episode_sent <- office %>%
  mutate(text = str_to_lower(text)) %>%
  unnest_tokens(word, text) %>%
  inner_join(bing, by = "word") %>%
  count(season, episode, sentiment, name = "n") %>%
  pivot_wider(names_from = sentiment, values_from = n, values_fill = 0) %>%
  mutate(sent_score = positive - negative) %>%
  right_join(episode_meta, by = c("season", "episode")) %>%
  replace_na(list(sent_score = 0, positive = 0, negative = 0)) %>%
  mutate(pos_prop = positive / (positive + negative))

episode_sent

# A tibble: 186 × 9
   season episode negative positive sent_score episode_name      imdb_rating
    <int>   <int>    <int>    <int>      <int> <chr>                   <dbl>
 1      1       1       74      107         33 Pilot                     7.6
 2      1       2       63      153         90 Diversity Day             8.3
 3      1       3       67      128         61 Health Care               7.9
 4      1       4       65      163         98 The Alliance              8.1
 5      1       5       57      127         70 Basketball                8.4
 6      1       6       51      173        122 Hot Girl                  7.8
 7      2       1       58      135         77 The Dundies               8.7
 8      2       2       86      146         60 Sexual Harassment         8.2
 9      2       3       38      146        108 Office Olympics           8.4
10      2       4       67      122         55 The Fire                  8.4
# ℹ 176 more rows
# ℹ 2 more variables: air_date <date>, pos_prop <dbl>
…
